<?xml version="1.0" encoding="utf-8"?>
<!-- Generator: Adobe Illustrator 24.2.3, SVG Export Plug-In . SVG Version: 6.00 Build 0)  -->
<svg version="1.1" id="Слой_1" xmlns="http://www.w3.org/2000/svg" xmlns:xlink="http://www.w3.org/1999/xlink" x="0px" y="0px"
	 viewBox="0 0 21 21" style="enable-background:new 0 0 21 21;" xml:space="preserve">
<style type="text/css">
	.st0{fill:url(#SVGID_1_);}
	.st1{fill-rule:evenodd;clip-rule:evenodd;fill:#FFFFFF;}
	.st2{fill:#FFFFFF;}
	.st3{opacity:0.5985;fill:#FFFFFF;enable-background:new    ;}
</style>
<g>
	
		<linearGradient id="SVGID_1_" gradientUnits="userSpaceOnUse" x1="6.028703e-02" y1="32.0596" x2="25.1038" y2="6.7285" gradientTransform="matrix(1 0 0 -1 0 32)">
		<stop  offset="0" style="stop-color:#22BE9C"/>
		<stop  offset="1" style="stop-color:#FBCF33"/>
	</linearGradient>
	<path class="st0" d="M4,0h13c2.2,0,4,1.8,4,4v13c0,2.2-1.8,4-4,4H4c-2.2,0-4-1.8-4-4V4C0,1.8,1.8,0,4,0z"/>
</g>
<path class="st1" d="M15.5,5c0.1,0,0.2,0,0.3,0.1C16,5.2,16,5.3,16,5.5c-0.4,6.2-5.8,8.5-5.9,8.5c-0.2,0.1-0.4,0-0.5-0.1l-2.5-2.5
	C7,11.2,7,11.1,7,10.9C7.1,10.8,9.3,5.3,15.5,5z M11.3,10.2c0.3,0.1,0.7,0.1,1-0.2c0.3-0.3,0.3-0.9,0-1.2c-0.3-0.3-0.6-0.3-1-0.2
	C11,8.7,10.8,9,10.8,9.4S11,10,11.3,10.2z"/>
<path class="st2" d="M5.6,13.4c0.4-0.4,0.9-0.5,1.4-0.4c0.5,0.1,0.9,0.5,1,1c0.1,0.5,0,1-0.4,1.4C7,16,5,16,5,16S5,14,5.6,13.4z"/>
<path class="st3" d="M10,6.1C8.8,5.8,7.5,6.3,6.7,7.4C6.4,7.7,6.2,8,6.1,8.3C6,8.5,6,8.8,6.1,9L7,10C7.8,8.5,8.8,7.1,10,6.1z"/>
<path class="st3" d="M14.9,11c0.3,1.2-0.2,2.5-1.3,3.3c-0.3,0.2-0.6,0.4-0.9,0.6C12.5,15,12.2,15,12,14.9L11,14
	C12.5,13.2,13.9,12.2,14.9,11z"/>
</svg>
