<svg width="20" height="20" viewBox="0 0 20 20" fill="none" xmlns="http://www.w3.org/2000/svg">
<path d="M10.5785 12.9665C10.3896 13.0893 10.1771 13.1384 9.98819 13.1384C9.79929 13.1384 9.58678 13.0893 9.39787 12.9665L0 7V14.9308C0 16.625 1.32231 18 2.95159 18H17.0484C18.6777 18 20 16.625 20 14.9308V7L10.5785 12.9665Z" fill="#BDBDBD"/>
<path d="M17.1156 3H2.88439C1.47795 3 0.286055 3.94915 0 5.21469L10.0119 11L20 5.21469C19.7139 3.94915 18.522 3 17.1156 3Z" fill="#BDBDBD"/>
</svg>
