<svg width="7" height="11" viewBox="0 0 7 11" fill="none" xmlns="http://www.w3.org/2000/svg">
<circle cx="1.5" cy="9.5" r="1.5" transform="rotate(-90 1.5 9.5)" fill="#BDBDBD" fill-opacity="0.4"/>
<circle cx="5.5" cy="9.5" r="1.5" transform="rotate(-90 5.5 9.5)" fill="#BDBDBD" fill-opacity="0.4"/>
<circle cx="1.5" cy="5.5" r="1.5" transform="rotate(-90 1.5 5.5)" fill="#BDBDBD" fill-opacity="0.4"/>
<circle cx="5.5" cy="5.5" r="1.5" transform="rotate(-90 5.5 5.5)" fill="#BDBDBD" fill-opacity="0.4"/>
<circle cx="1.5" cy="1.5" r="1.5" transform="rotate(-90 1.5 1.5)" fill="#BDBDBD" fill-opacity="0.4"/>
<circle cx="5.5" cy="1.5" r="1.5" transform="rotate(-90 5.5 1.5)" fill="#BDBDBD" fill-opacity="0.4"/>
</svg>
