<svg width="20" height="20" viewBox="0 0 20 20" fill="none" xmlns="http://www.w3.org/2000/svg">
<path d="M3.12695 14.1015H9.41523V15.3125H10.5871V14.1015H16.8754V15.3125H18.0473V13.5156C18.0473 13.1922 17.7852 12.9297 17.4613 12.9297H10.5871V10.9375H15.268C16.0363 10.9375 16.6613 10.3125 16.6613 9.54414V6.86211C16.6613 6.6625 16.6191 6.47266 16.543 6.30078C16.1672 6.5168 15.732 6.64062 15.268 6.64062H4.73437C4.27031 6.64062 3.83516 6.5168 3.45937 6.30078C3.3832 6.47266 3.34102 6.6625 3.34102 6.86211V9.54414C3.34102 10.3125 3.96602 10.9375 4.73437 10.9375H9.41523V12.9297H2.54102C2.21719 12.9297 1.95508 13.1922 1.95508 13.5156V15.3125H3.12695V14.1015ZM13.7316 7.97539C14.073 7.97539 14.35 8.25234 14.35 8.59375C14.35 8.93515 14.073 9.2121 13.7316 9.2121C13.3902 9.2121 13.1133 8.93515 13.1133 8.59375C13.1133 8.25234 13.3902 7.97539 13.7316 7.97539ZM8.58906 9.17968H5.88008C5.55664 9.17968 5.29414 8.91718 5.29414 8.59375C5.29414 8.27031 5.55664 8.00781 5.88008 8.00781H8.58906C8.9125 8.00781 9.175 8.27031 9.175 8.59375C9.175 8.91718 8.9125 9.17968 8.58906 9.17968Z" fill="#BDBDBD"/>
<path d="M4.49375 16.4844C4.0823 16.4844 0.984336 16.4844 0.585938 16.4844C0.2625 16.4844 0 16.7469 0 17.0703V19.4141C0 19.7375 0.2625 20 0.585938 20H4.49375C4.81719 20 5.07969 19.7375 5.07969 19.4141V17.0703C5.07969 16.7469 4.81719 16.4844 4.49375 16.4844Z" fill="#BDBDBD"/>
<path d="M19.4137 16.4844C19.0153 16.4844 15.9173 16.4844 15.5059 16.4844C15.1824 16.4844 14.9199 16.7469 14.9199 17.0703V19.4141C14.9199 19.7375 15.1824 20 15.5059 20H19.4137C19.7371 20 19.9996 19.7375 19.9996 19.4141V17.0703C19.9996 16.7469 19.7371 16.4844 19.4137 16.4844Z" fill="#BDBDBD"/>
<path d="M11.9527 16.4844C11.5252 16.4844 8.44051 16.4844 8.04492 16.4844C7.72149 16.4844 7.45898 16.7469 7.45898 17.0703V19.4141C7.45898 19.7375 7.72149 20 8.04492 20H11.9527C12.2762 20 12.5387 19.7375 12.5387 19.4141V17.0703C12.5387 16.7469 12.2762 16.4844 11.9527 16.4844Z" fill="#BDBDBD"/>
<path d="M4.7332 5.46875H15.2668C16.0352 5.46875 16.6602 4.84375 16.6602 4.07539V1.39336C16.6602 0.625 16.0352 0 15.2668 0H4.7332C3.96484 0 3.33984 0.625 3.33984 1.39336V4.07539C3.33984 4.84375 3.96484 5.46875 4.7332 5.46875ZM13.7305 2.11602C14.0719 2.11602 14.3488 2.39297 14.3488 2.73438C14.3488 3.07578 14.0719 3.35273 13.7305 3.35273C13.3891 3.35273 13.1121 3.07578 13.1121 2.73438C13.1121 2.39297 13.3891 2.11602 13.7305 2.11602ZM5.87891 2.14844H8.58789C8.91133 2.14844 9.17383 2.41094 9.17383 2.73438C9.17383 3.05781 8.91133 3.32031 8.58789 3.32031H5.87891C5.55547 3.32031 5.29297 3.05781 5.29297 2.73438C5.29297 2.41094 5.55547 2.14844 5.87891 2.14844Z" fill="#BDBDBD"/>
</svg>
