<svg width="20" height="20" viewBox="0 0 20 20" fill="none" xmlns="http://www.w3.org/2000/svg">
<path d="M3.19298 0C2.6092 0 2.0669 0.332663 1.74294 0.890612L0.154523 3.62498C0.0866725 3.7416 0.0541025 3.87587 0 4H9V0H3.19298Z" fill="#BDBDBD"/>
<path d="M19.8455 3.62498L18.257 0.890622C17.9331 0.332667 17.3521 0 16.7683 0H11V4H20C19.9459 3.87591 19.9133 3.74164 19.8455 3.62498Z" fill="#BDBDBD"/>
<path d="M19.9818 5H0.0182422C0.0164453 5.04121 0 5.07967 0 5.12107V18.2781C0 19.2276 0.788516 20 1.75781 20H18.2422C19.2115 20 20 19.2276 20 18.2781V5.12107C20 5.07967 19.9836 5.04121 19.9818 5ZM12.3438 10.7398H7.65625C6.68695 10.7398 5.89844 9.96737 5.89844 9.01786C5.89844 8.06834 6.68695 7.29592 7.65625 7.29592H12.3438C13.313 7.29592 14.1016 8.06834 14.1016 9.01786C14.1016 9.96737 13.313 10.7398 12.3438 10.7398Z" fill="#BDBDBD"/>
</svg>
