<svg width="18" height="22" viewBox="0 0 18 22" fill="none" xmlns="http://www.w3.org/2000/svg">
<path d="M9.0005 0C9.92417 -7.35858e-07 10.8125 0.361566 11.4818 1.00991C12.151 1.65826 12.55 2.54379 12.5962 3.48333L12.6007 3.66667H17.1009C17.3304 3.66693 17.551 3.75639 17.7178 3.91678C17.8846 4.07717 17.985 4.29637 17.9985 4.52961C18.0119 4.76285 17.9374 4.99251 17.7901 5.17168C17.6429 5.35085 17.4341 5.46599 17.2063 5.49358L17.1009 5.5H16.3368L15.2747 18.8403C15.2062 19.7011 14.8221 20.5041 14.1987 21.0896C13.5753 21.675 12.7583 22.0001 11.9104 22H6.09064C5.24265 22.0001 4.42571 21.675 3.80232 21.0896C3.17893 20.5041 2.79477 19.7011 2.72625 18.8403L1.66329 5.5H0.90005C0.679598 5.49997 0.466823 5.41754 0.302082 5.26834C0.137341 5.11915 0.0320932 4.91356 0.00630032 4.69058L0 4.58333C2.90811e-05 4.35881 0.0809648 4.14211 0.227456 3.97433C0.373948 3.80654 0.575806 3.69935 0.794744 3.67308L0.90005 3.66667H5.4003C5.4003 2.69421 5.7796 1.76158 6.45477 1.07394C7.12994 0.386308 8.04567 0 9.0005 0ZM6.97539 8.47917C6.81226 8.47917 6.65466 8.53934 6.53172 8.64854C6.40879 8.75773 6.32883 8.90858 6.30665 9.07317L6.30035 9.16667V16.5L6.30665 16.5935C6.32888 16.7581 6.40885 16.9088 6.53179 17.018C6.65472 17.1272 6.81229 17.1873 6.97539 17.1873C7.13848 17.1873 7.29606 17.1272 7.41899 17.018C7.54192 16.9088 7.62189 16.7581 7.64412 16.5935L7.65042 16.5V9.16667L7.64412 9.07317C7.62194 8.90858 7.54199 8.75773 7.41905 8.64854C7.29611 8.53934 7.13851 8.47917 6.97539 8.47917ZM11.0256 8.47917C10.8625 8.47917 10.7049 8.53934 10.5819 8.64854C10.459 8.75773 10.3791 8.90858 10.3569 9.07317L10.3506 9.16667V16.5L10.3569 16.5935C10.3791 16.7581 10.4591 16.9088 10.582 17.018C10.7049 17.1272 10.8625 17.1873 11.0256 17.1873C11.1887 17.1873 11.3463 17.1272 11.4692 17.018C11.5921 16.9088 11.6721 16.7581 11.6943 16.5935L11.7006 16.5V9.16667L11.6943 9.07317C11.6722 8.90858 11.5922 8.75773 11.4693 8.64854C11.3463 8.53934 11.1887 8.47917 11.0256 8.47917ZM9.0005 1.83333C8.54635 1.83319 8.10894 2.00787 7.77594 2.32237C7.44294 2.63687 7.23896 3.06794 7.2049 3.52917L7.2004 3.66667H10.8006L10.7961 3.52917C10.762 3.06794 10.5581 2.63687 10.2251 2.32237C9.89206 2.00787 9.45464 1.83319 9.0005 1.83333Z" fill="#BDBDBD" fill-opacity="0.5"/>
</svg>
