<svg width="20" height="20" viewBox="0 0 20 20" fill="none" xmlns="http://www.w3.org/2000/svg">
<path d="M19.6079 8.96094L11.2526 0.521831C10.562 -0.173608 9.43907 -0.174595 8.74709 0.522776L0.39179 8.96094C-0.130597 9.48846 -0.130597 10.3442 0.39179 10.8717C0.914503 11.3996 1.76119 11.3996 2.28382 10.8717L3.41642 9.72762V18.5602C3.41642 19.3554 4.05469 20 4.84203 20H7.88746V15.9871C7.88746 15.6754 8.13761 15.4223 8.44681 15.4223H11.5543C11.8633 15.4223 12.1135 15.6754 12.1135 15.9871V20H15.1584C15.9458 20 16.584 19.3554 16.584 18.5603V9.72836L17.716 10.8717C17.9775 11.1357 18.3197 11.2676 18.662 11.2676C19.0042 11.2676 19.3465 11.1357 19.6079 10.8717C20.1307 10.3442 20.1307 9.4885 19.6079 8.96094Z" fill="#37A48C"/>
</svg>
