<svg width="20" height="20" viewBox="0 0 20 20" fill="none" xmlns="http://www.w3.org/2000/svg">
<path d="M17.9904 16.5046L17.0893 5.2885C17.0334 4.56585 16.4144 4 15.6808 4H13.9007V6.60507C13.9007 6.92769 13.6363 7.18883 13.3097 7.18883C12.9835 7.18883 12.7187 6.92769 12.7187 6.60507V4H7.28158V6.60507C7.28158 6.92769 7.0168 7.18883 6.69058 7.18883C6.36396 7.18883 6.09957 6.92769 6.09957 6.60507V4H4.3195C3.5859 4 2.96692 4.56585 2.91099 5.28695L2.00952 16.5061C1.9398 17.4047 2.25538 18.299 2.87512 18.9598C3.4949 19.6205 4.3735 20 5.28561 20H14.7147C15.6268 20 16.5054 19.6205 17.1252 18.9598C17.7449 18.299 18.0605 17.4047 17.9904 16.5046ZM12.6628 10.7928L9.60615 13.8119C9.4907 13.926 9.3394 13.9831 9.18813 13.9831C9.03682 13.9831 8.88555 13.926 8.77011 13.8119L7.33755 12.3969C7.10667 12.1689 7.10667 11.7996 7.33755 11.5715C7.56843 11.3435 7.94274 11.3435 8.17323 11.5715L9.18817 12.5736L11.8271 9.96702C12.0576 9.73936 12.4319 9.73936 12.6628 9.96702C12.8937 10.1951 12.8937 10.5648 12.6628 10.7928Z" fill="#BDBDBD"/>
<path d="M9.99998 0C7.79432 0 6 1.7585 6 3.91965V4H7.21214V3.91965C7.21214 2.41329 8.46264 1.18764 10 1.18764C11.5374 1.18764 12.7879 2.41329 12.7879 3.91965V4H14V3.91965C14 1.7585 12.2056 0 9.99998 0Z" fill="#BDBDBD"/>
</svg>
